…
```
## The following object is masked from 'package:base':
## 
##     date
```

```r
DF$date <- ymd(DF$date)
DF$interval <- as.factor(DF$interval)
DF<- as_tibble(DF)
DF
```

```
## # A tibble: 17,568 x 3
##    steps date       interval
##    <int> <date>     <fct>   
##  1    NA 2012-10-01 0       
##  2    NA 2012-10-01 5       
##  3    NA 2012-10-01 10      
##  4    NA 2012-10-01 15      
##  5    NA 2012-10-01 20      
##  6    NA 2012-10-01 25      
##  7    NA 2012-10-01 30      
##  8    NA 2012-10-01 35      
##  9    NA 2012-10-01 40      
## 10    NA 2012-10-01 45      
## # ... with 17,558 more rows
```
…
 1. **Make a histogram of the total number of steps taken each day.**
 
First, figure out the total number of steps taken each day using `dplyr` to group by date and then summarize across the mean of all steps. 

```r
newDF <- na.omit(DF)
by_date<- newDF %>%   
  group_by(date,add=TRUE) %>%
  summarise(total_steps=sum(steps))
by_date
```

```
## # A tibble: 53 x 2
##    date       total_steps
##    <date>           <int>
##  1 2012-10-02         126
##  2 2012-10-03       11352
##  3 2012-10-04       12116
##  4 2012-10-05       13294
##  5 2012-10-06       15420
##  6 2012-10-07       11015
##  7 2012-10-09       12811
##  8 2012-10-10        9900
##  9 2012-10-11       10304
## 10 2012-10-12       17382
## # ... with 43 more rows
```
…
## What is the average daily activity pattern?

 1. **Make a time series plot (i.e. `type = "l"`) of the 5-minute interval (x-axis) and the average number of steps taken, averaged across all days (y-axis).**

First, group the data frame (without `NA`s) by 5-minute intervals, then summarize by the mean of steps per 5-minuteinterval. 

```r
by_interval_mean <-newDF %>%
  group_by(interval) %>%
  summarize(mean_steps =mean(steps))
by_interval_mean
```

```
## # A tibble: 288 x 2
##    interval mean_steps
##    <fct>         <dbl>
##  1 0            1.72  
##  2 5            0.340 
##  3 10           0.132 
##  4 15           0.151 
##  5 20           0.0755
##  6 25           2.09  
##  7 30           0.528 
##  8 35           0.868 
##  9 40           0     
## 10 45           1.47  
## # ... with 278 more rows
```
…
